vagrant@ubuntu-focal:~$ cat /etc/group
root:x:0:
daemon:x:1:
bin:x:2:
sys:x:3:
adm:x:4:syslog,ubuntu
tty:x:5:syslog
disk:x:6:
lp:x:7:
mail:x:8:
news:x:9:
uucp:x:10:
man:x:12:
proxy:x:13:
kmem:x:15:
dialout:x:20:ubuntu
fax:x:21:
voice:x:22:
cdrom:x:24:ubuntu
floppy:x:25:ubuntu
tape:x:26:
sudo:x:27:ubuntu
audio:x:29:ubuntu
dip:x:30:ubuntu
www-data:x:33:
backup:x:34:
operator:x:37:
list:x:38:
irc:x:39:
src:x:40:
gnats:x:41:
shadow:x:42:
utmp:x:43:
video:x:44:ubuntu
sasl:x:45:
plugdev:x:46:ubuntu
staff:x:50:
games:x:60:
users:x:100:
nogroup:x:65534:
systemd-journal:x:101:
systemd-network:x:102:
systemd-resolve:x:103:
systemd-timesync:x:104:
crontab:x:105:
messagebus:x:106:
input:x:107:
kvm:x:108:
render:x:109:
syslog:x:110:
tss:x:111:
uuidd:x:112:
tcpdump:x:113:
ssh:x:114:
landscape:x:115:
admin:x:116:
netdev:x:117:ubuntu
lxd:x:118:ubuntu
vboxsf:x:119:
vagrant:x:1000:
systemd-coredump:x:999:
ubuntu:x:1001:
ssl-cert:x:120:
Felix:x:1002:
olusegun:x:1003:
support:x:1004:Felix
Admin:x:1005:Bamidele
Engineering:x:1006:Olusegun
Bamidele:x:1007:
Olusegun:x:1008: